{
    "data": [
        {
            "can_remove": false,
            "created_time": "2014-10-02T03:17:28+0000",
            "from": {
                "id": "814564478565223",
                "name": "Jen Hayden"
            },
            "id": "10152312644461981_10152312650821981",
            "like_count": 8,
            "message": "Spurs looked awesome! #gospursgo",
            "user_likes": false
        },
        {
            "can_remove": false,
            "created_time": "2014-10-02T03:56:13+0000",
            "from": {
                "id": "1560387030858504",
                "name": "Aaron Portillo"
            },
            "id": "10152312644461981_10152312697271981",
            "like_count": 6,
            "message": "I was there courtside it was awesome thanks Spurs for the frree ticket to the Sacramento preseason game on the 20th😄",
            "user_likes": false
        },
        {
            "can_remove": false,
            "created_time": "2014-10-02T03:33:42+0000",
            "from": {
                "id": "1497280990541111",
                "name": "Gus Tavin Montalvo"
            },
            "id": "10152312644461981_10152312669566981",
            "like_count": 3,
            "message": "Did the Spurs Win?  Hahaha.. Great to have them back in San Anton..",
            "user_likes": false
        },
        {
            "can_remove": false,
            "created_time": "2014-10-02T03:15:26+0000",
            "from": {
                "id": "803005643091925",
                "name": "Aaron Quesada"
            },
            "id": "10152312644461981_10152312648511981",
            "like_count": 3,
            "message": "Forever support our team",
            "user_likes": false
        },
        {
            "can_remove": false,
            "created_time": "2014-10-02T03:43:34+0000",
            "from": {
                "id": "10201684022542501",
                "name": "William Ramos"
            },
            "id": "10152312644461981_10152312680971981",
            "like_count": 2,
            "message": "Lmao...who's this guy^^^^",
            "user_likes": false
        },
        {
            "can_remove": false,
            "created_time": "2014-10-02T10:35:42+0000",
            "from": {
                "id": "1478616282416039",
                "name": "Cerelino Sacro"
            },
            "id": "10152312644461981_10152313136996981",
            "like_count": 1,
            "message": "and it was so greatfull to see you again in finals guys...#spursvscavaliers2015finals!",
            "user_likes": false
        },
        {
            "can_remove": false,
            "created_time": "2014-10-05T06:10:37+0000",
            "from": {
                "id": "571810592924824",
                "name": "Marcus Cortuna"
            },
            "id": "10152312644461981_10152319906776981",
            "like_count": 0,
            "message": "back to back baby.... cant wait :D",
            "user_likes": false
        },
        {
            "can_remove": false,
            "created_time": "2014-10-04T18:03:33+0000",
            "from": {
                "id": "1510807049159572",
                "name": "Michael Wolfe"
            },
            "id": "10152312644461981_10152318591831981",
            "like_count": 0,
            "message": "Score?",
            "user_likes": false
        },
        {
            "can_remove": false,
            "created_time": "2014-10-02T22:52:00+0000",
            "from": {
                "id": "859946080706974",
                "name": "Mary Flores"
            },
            "id": "10152312644461981_10152314437326981",
            "like_count": 0,
            "message": "Love you guys",
            "user_likes": false
        },
        {
            "can_remove": false,
            "created_time": "2014-10-02T14:46:11+0000",
            "from": {
                "id": "833117666739672",
                "name": "Roland Valdez"
            },
            "id": "10152312644461981_10152313504936981",
            "like_count": 0,
            "message": "When is the next free game if any?",
            "user_likes": false
        },
        {
            "can_remove": false,
            "created_time": "2014-10-02T13:05:41+0000",
            "from": {
                "id": "716504918437932",
                "name": "Kat Marie Martinez"
            },
            "id": "10152312644461981_10152313332236981",
            "like_count": 0,
            "message": "go spurs!!!!",
            "user_likes": false
        },
        {
            "can_remove": false,
            "created_time": "2014-10-02T11:50:42+0000",
            "from": {
                "id": "1509835255921297",
                "name": "Alexander Ramirez"
            },
            "id": "10152312644461981_10152313225436981",
            "like_count": 0,
            "message": ".,spurs the best team..",
            "user_likes": false
        },
        {
            "can_remove": false,
            "created_time": "2014-10-02T09:34:00+0000",
            "from": {
                "id": "734299196648103",
                "name": "Max Merkley"
            },
            "id": "10152312644461981_10152313071756981",
            "like_count": 0,
            "message": "Gina Carano workout...you could  k ow much...",
            "user_likes": false
        },
        {
            "can_remove": false,
            "created_time": "2014-10-02T06:56:17+0000",
            "from": {
                "id": "1534422806794887",
                "name": "Danny Gonzalez"
            },
            "id": "10152312644461981_10152312890196981",
            "like_count": 0,
            "message": "Back 2 back ships",
            "user_likes": false
        },
        {
            "can_remove": false,
            "created_time": "2014-10-02T04:49:32+0000",
            "from": {
                "id": "365066496976416",
                "name": "Jo Owen"
            },
            "id": "10152312644461981_10152312758626981",
            "like_count": 0,
            "message": "Tennessee a bit far!!!i",
            "user_likes": false
        },
        {
            "can_remove": false,
            "created_time": "2014-10-02T04:36:32+0000",
            "from": {
                "id": "871712249507196",
                "name": "Stella Diaz"
            },
            "id": "10152312644461981_10152312742716981",
            "like_count": 0,
            "message": "I wish I could have made it. California is just a little to far. Let's Go Spurs!",
            "user_likes": false
        },
        {
            "can_remove": false,
            "created_time": "2014-10-02T04:31:22+0000",
            "from": {
                "id": "924341874247391",
                "name": "Ecko Gonzalez Unltd"
            },
            "id": "10152312644461981_10152312737276981",
            "like_count": 0,
            "message": "I wish i could post some pics",
            "user_likes": false
        },
        {
            "can_remove": false,
            "created_time": "2014-10-02T04:25:45+0000",
            "from": {
                "id": "1556274107925284",
                "name": "Jjamesbames Bond"
            },
            "id": "10152312644461981_10152312730706981",
            "like_count": 0,
            "message": "Ok",
            "user_likes": false
        },
        {
            "can_remove": false,
            "created_time": "2014-10-02T04:14:16+0000",
            "from": {
                "id": "1630178343875594",
                "name": "Rodel Marinduque"
            },
            "id": "10152312644461981_10152312717481981",
            "like_count": 0,
            "message": "Gogo spurs no#1",
            "user_likes": false
        },
        {
            "can_remove": false,
            "created_time": "2014-10-02T04:13:14+0000",
            "from": {
                "id": "1630178343875594",
                "name": "Rodel Marinduque"
            },
            "id": "10152312644461981_10152312716526981",
            "like_count": 0,
            "message": "Super laos na miami!!!!!",
            "user_likes": false
        },
        {
            "can_remove": false,
            "created_time": "2014-10-02T03:52:13+0000",
            "from": {
                "id": "4684355404054",
                "name": "Joe Gonzalez"
            },
            "id": "10152312644461981_10152312691481981",
            "like_count": 0,
            "message": "Go Spurs Go!",
            "user_likes": false
        },
        {
            "can_remove": false,
            "created_time": "2014-10-02T03:31:03+0000",
            "from": {
                "id": "806757532708251",
                "name": "Terry Rodriguez"
            },
            "id": "10152312644461981_10152312666701981",
            "like_count": 0,
            "message": "The pleasure was all ours LOVE OUR SPURS ALWAYS N FOREVER",
            "user_likes": false
        },
        {
            "can_remove": false,
            "created_time": "2014-10-02T03:26:15+0000",
            "from": {
                "id": "699228366827003",
                "name": "Antonio Arrezola"
            },
            "id": "10152312644461981_10152312661566981",
            "like_count": 0,
            "message": "Score?",
            "user_likes": false
        },
        {
            "can_remove": false,
            "created_time": "2014-10-02T03:20:53+0000",
            "from": {
                "id": "1509966125918915",
                "name": "Kat Benally"
            },
            "id": "10152312644461981_10152312654806981",
            "like_count": 0,
            "message": "I wish i was there😞",
            "user_likes": false
        },
        {
            "can_remove": false,
            "created_time": "2014-10-02T03:19:46+0000",
            "from": {
                "id": "695581147197830",
                "name": "Conchita Vasquez"
            },
            "id": "10152312644461981_10152312653396981",
            "like_count": 0,
            "message": "I had 2 wrk, But I'll be there for the opener can't wait!  :D.  ❤ go spurs go. #1.",
            "user_likes": false
        }
    ],
    "paging": {
        "cursors": {
            "after": "MTE=",
            "before": "Mzc="
        },
        "next": "https://graph.facebook.com/v2.1/25781101980_10152312644461981/comments?summary=true&access_token=access_token&limit=25&after=MTE%3D"
    },
    "summary": {
        "order": "ranked",
        "total_count": 37
    }
}