{
    "data": [
        {
            "id": "706378309440217",
            "name": "Garry Valenzuela"
        },
        {
            "id": "705667692856148",
            "name": "Ashley Camacho"
        },
        {
            "id": "833321496698454",
            "name": "Zoe Morgan"
        },
        {
            "id": "913802818647026",
            "name": "Yu-Te Su"
        },
        {
            "id": "863310993679540",
            "name": "Raul Sandoval"
        },
        {
            "id": "753152658086027",
            "name": "Anjoy Lontayao"
        },
        {
            "id": "571810592924824",
            "name": "Marcus Cortuna"
        },
        {
            "id": "462842163854325",
            "name": "Kurt Andre DelaVega Sitchon"
        },
        {
            "id": "1537125566503637",
            "name": "Zhy Samelo"
        },
        {
            "id": "1448472988725630",
            "name": "Jam Carter"
        },
        {
            "id": "1550012498562277",
            "name": "Rainie Wong"
        },
        {
            "id": "1479246039016253",
            "name": "Jason Stout"
        },
        {
            "id": "357315037760152",
            "name": "Geraldine Roselle Cortez"
        },
        {
            "id": "578704895592481",
            "name": "John Joseph Lopez"
        },
        {
            "id": "1479426022333651",
            "name": "Charles White"
        },
        {
            "id": "609986702452677",
            "name": "徐銘毅"
        },
        {
            "id": "864424516915628",
            "name": "AlphaEllen Vergara"
        },
        {
            "id": "1535301126686266",
            "name": "Marco Nogueira"
        },
        {
            "id": "854010777956179",
            "name": "陳志明"
        },
        {
            "id": "1486148888311250",
            "name": "Eddie Saucedo"
        },
        {
            "id": "954358581248271",
            "name": "Yu Ping Lo"
        },
        {
            "id": "972296212797563",
            "name": "Cindy Jones Coers"
        },
        {
            "id": "1514209512170155",
            "name": "Anibal Benitez"
        },
        {
            "id": "705374389553347",
            "name": "Denver Noblezada"
        },
        {
            "id": "865032433516709",
            "name": "Zazpin Westlifeerrzz"
        }
    ],
    "paging": {
        "cursors": {
            "after": "ODY1MDMyNDMzNTE2NzA5",
            "before": "NzA2Mzc4MzA5NDQwMjE3"
        },
        "next": "https://graph.facebook.com/v2.1/25781101980_10152312644461981/likes?summary=true&access_token=access_token&limit=25&after=ODY1MDMyNDMzNTE2NzA5"
    },
    "summary": {"total_count": 2596}
}