{
    "data": [
        {
            "first_name": "晋三",
            "gender": "male",
            "id": "100003403570846",
            "last_name": "安倍"
        },
        {
            "first_name": "Name",
            "gender": "male",
            "id": "1414141414",
            "last_name": "Foo"
        },
        {
            "first_name": "Name",
            "gender": "female",
            "id": "2424242424",
            "last_name": "Bar"
        }
    ],
    "paging": {
        "cursors": {
            "after": "NzEyNTA2MDc2",
            "before": "MTQzNjYxMjQ5OQ=="
        },
        "next": "https://graph.facebook.com/1234567890123456/subscribedto?fields=gender,first_name,last_name&access_token=access_token&limit=25&after=NzEyNTA2MDc2"
    },
    "summary": {"total_count": 27}
}